…
2. Notice that we have some neutral superheros! Who are they? List their names below.  

```r
superhero_info %>%
  select(name, alignment) %>%
  filter(alignment == "neutral")
```

```
## # A tibble: 24 × 2
##    name         alignment
##    <chr>        <chr>    
##  1 Bizarro      neutral  
##  2 Black Flash  neutral  
##  3 Captain Cold neutral  
##  4 Copycat      neutral  
##  5 Deadpool     neutral  
##  6 Deathstroke  neutral  
##  7 Etrigan      neutral  
##  8 Galactus     neutral  
##  9 Gladiator    neutral  
## 10 Indigo       neutral  
## # ℹ 14 more rows
```

## `superhero_info`
3. Let's say we are only interested in the variables name, alignment, and "race". How would you isolate these variables from `superhero_info`?

```r
superhero_info %>%
  select(name, alignment, race)
```

```
## # A tibble: 734 × 3
##    name          alignment race             
##    <chr>         <chr>     <chr>            
##  1 A-Bomb        good      Human            
##  2 Abe Sapien    good      Icthyo Sapien    
##  3 Abin Sur      good      Ungaran          
##  4 Abomination   bad       Human / Radiation
##  5 Abraxas       bad       Cosmic Entity    
##  6 Absorbing Man bad       Human            
##  7 Adam Monroe   good      <NA>             
##  8 Adam Strange  good      Human            
##  9 Agent 13      good      <NA>             
## 10 Agent Bob     good      Human            
## # ℹ 724 more rows
```

## Not Human
4. List all of the superheros that are not human.

```r
superhero_info %>%
  select(name, alignment, race) %>%
  filter(race != "human")
```

```
## # A tibble: 430 × 3
##    name          alignment race             
##    <chr>         <chr>     <chr>            
##  1 A-Bomb        good      Human            
##  2 Abe Sapien    good      Icthyo Sapien    
##  3 Abin Sur      good      Ungaran          
##  4 Abomination   bad       Human / Radiation
##  5 Abraxas       bad       Cosmic Entity    
##  6 Absorbing Man bad       Human            
##  7 Adam Strange  good      Human            
##  8 Agent Bob     good      Human            
##  9 Ajax          bad       Cyborg           
## 10 Alex Mercer   bad       Human            
## # ℹ 420 more rows
```
…
8. Among the bad guys, who are the male humans over 200 inches in height?


```r
bad_guys %>%
  select(name, height) %>%
  filter(height > 200)
```

```
## # A tibble: 25 × 2
##    name           height
##    <chr>           <dbl>
##  1 Abomination       203
##  2 Alien             244
##  3 Amazo             257
##  4 Apocalypse        213
##  5 Bane              203
##  6 Bloodaxe          218
##  7 Darkseid          267
##  8 Doctor Doom       201
##  9 Doctor Doom II    201
## 10 Doomsday          244
## # ℹ 15 more rows
```
…
11. Let's make a new variable that is the ratio of height to weight. Call this variable `height_weight_ratio`.    


```r
superhero_info <- superhero_info %>%
  mutate(height_weight_ratio= height/weight)
superhero_info %>%
  select(name, height, weight, height_weight_ratio) 
```

```
## # A tibble: 734 × 4
##    name          height weight height_weight_ratio
##    <chr>          <dbl>  <dbl>               <dbl>
##  1 A-Bomb           203    441               0.460
##  2 Abe Sapien       191     65               2.94 
##  3 Abin Sur         185     90               2.06 
##  4 Abomination      203    441               0.460
##  5 Abraxas           NA     NA              NA    
##  6 Absorbing Man    193    122               1.58 
##  7 Adam Monroe       NA     NA              NA    
##  8 Adam Strange     185     88               2.10 
##  9 Agent 13         173     61               2.84 
## 10 Agent Bob        178     81               2.20 
## # ℹ 724 more rows
```
…
13. How many superheros have a combination of agility, stealth, super_strength, stamina?

```r
superhero_powers %>%
  filter(agility == T, stealth == T, super_strength == T, stamina == T) %>%
  select(hero_names,agility, stealth, super_strength, stamina)
```

```
## # A tibble: 40 × 5
##    hero_names  agility stealth super_strength stamina
##    <chr>       <lgl>   <lgl>   <lgl>          <lgl>  
##  1 Alex Mercer TRUE    TRUE    TRUE           TRUE   
##  2 Angel       TRUE    TRUE    TRUE           TRUE   
##  3 Ant-Man II  TRUE    TRUE    TRUE           TRUE   
##  4 Aquaman     TRUE    TRUE    TRUE           TRUE   
##  5 Batman      TRUE    TRUE    TRUE           TRUE   
##  6 Black Flash TRUE    TRUE    TRUE           TRUE   
##  7 Black Manta TRUE    TRUE    TRUE           TRUE   
##  8 Brundlefly  TRUE    TRUE    TRUE           TRUE   
##  9 Buffy       TRUE    TRUE    TRUE           TRUE   
## 10 Cable       TRUE    TRUE    TRUE           TRUE   
## # ℹ 30 more rows
```
…
