…
Problem 9. (5 points) Among the YNP wolf packs, which one has had the highest overall persistence `persisty1` for the years represented in the data? Look this pack up online and tell me what is unique about its behavior- specifically, what prey animals does this pack specialize on?  


```r
# coded based on total persistence over time by summing the amount of times the pack has remained in it's same spot.
ynp %>%
  select(pack, packcode, persisty1) %>%
  group_by(packcode) %>%
  summarise(total_pack_persisty= sum(persisty1)) %>%
  arrange(desc(total_pack_persisty))
```

```
## # A tibble: 46 × 2
##    packcode total_pack_persisty
##       <int>               <int>
##  1       38                  26
##  2       24                  20
##  3       52                  18
##  4       36                  12
##  5       15                  10
##  6       11                   9
##  7       20                   9
##  8       29                   9
##  9       33                   8
## 10       34                   8
## # ℹ 36 more rows
```
…
