…
5. Pivot the data back so that the dates are data and not column names.

```r
beaches_wide %>%
  pivot_longer(-site,
               names_to = "date",
               values_to = "enterococci_cfu_100ml",
               )
```

```
## # A tibble: 3,784 × 3
##    site           date       enterococci_cfu_100ml
##    <chr>          <chr>                      <dbl>
##  1 Clovelly Beach 02/01/2013                    19
##  2 Clovelly Beach 06/01/2013                     3
##  3 Clovelly Beach 12/01/2013                     2
##  4 Clovelly Beach 18/01/2013                    13
##  5 Clovelly Beach 30/01/2013                     8
##  6 Clovelly Beach 05/02/2013                     7
##  7 Clovelly Beach 11/02/2013                    11
##  8 Clovelly Beach 23/02/2013                    97
##  9 Clovelly Beach 07/03/2013                     3
## 10 Clovelly Beach 25/03/2013                     0
## # ℹ 3,774 more rows
```
…
```r
beaches_long2 %>%
  group_by(site, year) %>%
  summarise(mean_ent_100ml = mean(enterococci_cfu_100ml, na.rm = T)) %>%
  arrange(year)
```

```
## `summarise()` has grouped output by 'site'. You can override using the
## `.groups` argument.
```

```
## # A tibble: 66 × 3
## # Groups:   site [11]
##    site                    year  mean_ent_100ml
##    <chr>                   <chr>          <dbl>
##  1 Bondi Beach             2013           32.2 
##  2 Bronte Beach            2013           26.8 
##  3 Clovelly Beach          2013            9.28
##  4 Coogee Beach            2013           39.7 
##  5 Gordons Bay (East)      2013           24.8 
##  6 Little Bay Beach        2013          122.  
##  7 Malabar Beach           2013          101.  
##  8 Maroubra Beach          2013           47.1 
##  9 South Maroubra Beach    2013           39.3 
## 10 South Maroubra Rockpool 2013           96.4 
## # ℹ 56 more rows
```
…
