…
2. Which cities in California have the highest number of colleges?

```r
ca_colleges %>%
  group_by(city) %>%
  summarise(number_college = n_distinct(instnm)) %>%
  arrange(-number_college)
```

```
## # A tibble: 161 × 2
##    city          number_college
##    <chr>                  <int>
##  1 Los Angeles               24
##  2 San Diego                 18
##  3 San Francisco             15
##  4 Sacramento                10
##  5 Berkeley                   9
##  6 Oakland                    9
##  7 Claremont                  7
##  8 Pasadena                   6
##  9 Fresno                     5
## 10 Irvine                     5
## # ℹ 151 more rows
```
…
