…
## Practice
1. Can we use a single approach to deal with NA's in this data set? Given what you learned in the previous lab, how would you manage the NA values?

```r
life_history %>%
 replace_with_na(replace = list(x= -999,-999.00,-999.0))
```

```
## Warning in replace_with_na.data.frame(., replace = list(x = -999, -999, :
## Missing from data: x,
```

```
## # A tibble: 1,440 × 13
##    order  family genus species   mass gestation newborn weaning wean_mass    afr
##    <chr>  <chr>  <chr> <chr>    <dbl>     <dbl> <chr>     <dbl>     <dbl>  <dbl>
##  1 Artio… Antil… Anti… americ… 4.54e4      8.13 3246.36    3         8900   13.5
##  2 Artio… Bovid… Addax nasoma… 1.82e5      9.39 5480       6.5       -999   27.3
##  3 Artio… Bovid… Aepy… melamp… 4.15e4      6.35 5093       5.63     15900   16.7
##  4 Artio… Bovid… Alce… busela… 1.5 e5      7.9  10166.…    6.5       -999   23.0
##  5 Artio… Bovid… Ammo… clarkei 2.85e4      6.8  not me… -999         -999 -999  
##  6 Artio… Bovid… Ammo… lervia  5.55e4      5.08 3810       4         -999   14.9
##  7 Artio… Bovid… Anti… marsup… 3   e4      5.72 3910       4.04      -999   10.2
##  8 Artio… Bovid… Anti… cervic… 3.75e4      5.5  3846       2.13      -999   20.1
##  9 Artio… Bovid… Bison bison   4.98e5      8.93 20000     10.7     157500   29.4
## 10 Artio… Bovid… Bison bonasus 5   e5      9.14 23000.…    6.6       -999   30.0
## # ℹ 1,430 more rows
## # ℹ 3 more variables: max_life <dbl>, litter_size <dbl>, litters_year <dbl>
```
…
