…
```
## `summarise()` has grouped output by 'year'. You can override using the
## `.groups` argument.
```

```
## # A tibble: 60 × 5
## # Groups:   year [12]
##     year continent min_life_exp mean_life_exp max_life_exp
##    <int> <fct>            <dbl>         <dbl>        <dbl>
##  1  1952 Africa            30            39.1         52.7
##  2  1952 Americas          37.6          53.3         68.8
##  3  1952 Asia              28.8          46.3         65.4
##  4  1952 Europe            43.6          64.4         72.7
##  5  1952 Oceania           69.1          69.3         69.4
##  6  1957 Africa            31.6          41.3         58.1
##  7  1957 Americas          40.7          56.0         70.0
##  8  1957 Asia              30.3          49.3         67.8
##  9  1957 Europe            48.1          66.7         73.5
## 10  1957 Oceania           70.3          70.3         70.3
## # ℹ 50 more rows
```
…
