…
## Data tidy
1. Some of the names used in the `superhero_info` data are problematic so you should rename them here. Before you do anything, first have a look at the names of the variables. You can use `rename()` or `clean_names()`.    

## `tabyl`
The `janitor` package has many awesome functions that we will explore. Here is its version of `table` which not only produces counts but also percentages. Very handy! Let's use it to explore the proportion of good guys and bad guys in the `superhero_info` data.  

```r
superhero_info %>%
  mutate_all(tolower)
```

```
## # A tibble: 734 × 10
##    name      Gender `Eye color` Race  `Hair color` Height Publisher `Skin color`
##    <chr>     <chr>  <chr>       <chr> <chr>        <chr>  <chr>     <chr>       
##  1 a-bomb    male   yellow      human no hair      203    marvel c… <NA>        
##  2 abe sapi… male   blue        icth… no hair      191    dark hor… blue        
##  3 abin sur  male   blue        unga… no hair      185    dc comics red         
##  4 abominat… male   green       huma… no hair      203    marvel c… <NA>        
##  5 abraxas   male   blue        cosm… black        <NA>   marvel c… <NA>        
##  6 absorbin… male   blue        human no hair      193    marvel c… <NA>        
##  7 adam mon… male   blue        <NA>  blond        <NA>   nbc - he… <NA>        
##  8 adam str… male   blue        human blond        185    dc comics <NA>        
##  9 agent 13  female blue        <NA>  blond        173    marvel c… <NA>        
## 10 agent bob male   brown       human brown        178    marvel c… <NA>        
## # ℹ 724 more rows
## # ℹ 2 more variables: Alignment <chr>, Weight <chr>
```
…
2. Notice that we have some neutral superheros! Who are they? List their names below.  

```r
superhero_info %>% 
  filter(Alignment == "neutral") %>%
  arrange(name)
```

```
## # A tibble: 24 × 10
##    name      Gender `Eye color` Race  `Hair color` Height Publisher `Skin color`
##    <chr>     <chr>  <chr>       <chr> <chr>         <dbl> <chr>     <chr>       
##  1 Bizarro   Male   black       Biza… Black           191 DC Comics white       
##  2 Black Fl… Male   <NA>        God … <NA>             NA DC Comics <NA>        
##  3 Captain … Male   brown       Human Brown            NA DC Comics <NA>        
##  4 Copycat   Female red         Muta… White           183 Marvel C… blue        
##  5 Deadpool  Male   brown       Muta… No Hair         188 Marvel C… <NA>        
##  6 Deathstr… Male   blue        Human White           193 DC Comics <NA>        
##  7 Etrigan   Male   red         Demon No Hair         193 DC Comics yellow      
##  8 Galactus  Male   black       Cosm… Black           876 Marvel C… <NA>        
##  9 Gladiator Male   blue        Stro… Blue            198 Marvel C… purple      
## 10 Indigo    Female <NA>        Alien Purple           NA DC Comics <NA>        
## # ℹ 14 more rows
## # ℹ 2 more variables: Alignment <chr>, Weight <dbl>
```

## `superhero_info`
3. Let's say we are only interested in the variables name, alignment, and "race". How would you isolate these variables from `superhero_info`?

```r
superhero_info %>%
  select(name, Alignment, Race)
```

```
## # A tibble: 734 × 3
##    name          Alignment Race             
##    <chr>         <chr>     <chr>            
##  1 A-Bomb        good      Human            
##  2 Abe Sapien    good      Icthyo Sapien    
##  3 Abin Sur      good      Ungaran          
##  4 Abomination   bad       Human / Radiation
##  5 Abraxas       bad       Cosmic Entity    
##  6 Absorbing Man bad       Human            
##  7 Adam Monroe   good      <NA>             
##  8 Adam Strange  good      Human            
##  9 Agent 13      good      <NA>             
## 10 Agent Bob     good      Human            
## # ℹ 724 more rows
```

## Not Human
4. List all of the superheros that are not human.

```r
superhero_info %>%
  filter(Race == "Human")
```

```
## # A tibble: 208 × 10
##    name      Gender `Eye color` Race  `Hair color` Height Publisher `Skin color`
##    <chr>     <chr>  <chr>       <chr> <chr>         <dbl> <chr>     <chr>       
##  1 A-Bomb    Male   yellow      Human No Hair         203 Marvel C… <NA>        
##  2 Absorbin… Male   blue        Human No Hair         193 Marvel C… <NA>        
##  3 Adam Str… Male   blue        Human Blond           185 DC Comics <NA>        
##  4 Agent Bob Male   brown       Human Brown           178 Marvel C… <NA>        
##  5 Alex Mer… Male   <NA>        Human <NA>             NA Wildstorm <NA>        
##  6 Alfred P… Male   blue        Human Black           178 DC Comics <NA>        
##  7 Ammo      Male   brown       Human Black           188 Marvel C… <NA>        
##  8 Animal M… Male   blue        Human Blond           183 DC Comics <NA>        
##  9 Ant-Man   Male   blue        Human Blond           211 Marvel C… <NA>        
## 10 Ant-Man … Male   blue        Human Blond           183 Marvel C… <NA>        
## # ℹ 198 more rows
## # ℹ 2 more variables: Alignment <chr>, Weight <dbl>
```
…
