…
6. Which country had the largest overall catch in the year 2000?

```r
fisheries_tidy %>%
  select(country, catch, year) %>%
  filter(year == 2000) %>%
  arrange(desc(catch))
```

```
## # A tibble: 8,793 × 3
##    country                  catch  year
##    <fct>                    <dbl> <dbl>
##  1 China                     9068  2000
##  2 Peru                      5717  2000
##  3 Russian Federation        5065  2000
##  4 Viet Nam                  4945  2000
##  5 Chile                     4299  2000
##  6 China                     3288  2000
##  7 China                     2782  2000
##  8 United States of America  2438  2000
##  9 China                     1234  2000
## 10 Philippines                999  2000
## # ℹ 8,783 more rows
```
…
7. Which country caught the most sardines (_Sardina pilchardus_) between the years 1990-2000?

```r
fisheries_tidy %>%
  group_by(country) %>%
  select(country, asfis_species_name, catch, year) %>%
  filter(year >= 1990 & year <= 2000) %>%
  filter(asfis_species_name == "Sardina pilchardus") %>%
  summarise(total_catch= sum(catch))%>%
  arrange(desc(total_catch))
```

```
## # A tibble: 37 × 2
##    country               total_catch
##    <fct>                       <dbl>
##  1 Morocco                      7470
##  2 Spain                        3507
##  3 Russian Federation           1639
##  4 Ukraine                      1030
##  5 Portugal                      818
##  6 Greece                        528
##  7 Italy                         507
##  8 Serbia and Montenegro         478
##  9 Denmark                       477
## 10 Tunisia                       427
## # ℹ 27 more rows
```
…
```r
fisheries_tidy %>%
  group_by(asfis_species_number) %>%
  select(year, asfis_species_number, catch, common_name) %>%
  filter(year >= 2008 & year <= 2012) %>%
  summarise(most_caught = sum(catch)) %>%
  left_join(fisheries_tidy  %>%
              filter(year >= 2008 & year <= 2012) %>%
              distinct(asfis_species_number, common_name),
            by = "asfis_species_number" ) %>%
  arrange(desc(most_caught))
```

```
## # A tibble: 1,477 × 3
##    asfis_species_number most_caught common_name                   
##    <fct>                      <dbl> <chr>                         
##  1 1480401601                 41075 Alaska pollock(=Walleye poll.)
##  2 1210600208                 35523 Anchoveta(=Peruvian anchovy)  
##  3 1470200701                  5733 Pacific saury                 
##  4 1210501204                  3849 Indian oil sardine            
##  5 1210501302                  3204 California pilchard           
##  6 1210502404                  3179 Gulf menhaden                 
##  7 2280700903                  2915 Akiami paste shrimp           
##  8 22501XXXXX                  2884 Squillids nei                 
##  9 1702300403                  2710 Japanese jack mackerel        
## 10 1720400204                  2611 Pacific sandlance             
## # ℹ 1,467 more rows
```

```r
fisheries_tidy %>%
  subset(asfis_species_number == "1480401601")
```

```
## # A tibble: 469 × 10
##    country common_name               isscaap_group_number isscaap_taxonomic_gr…¹
##    <fct>   <chr>                     <fct>                <chr>                 
##  1 Canada  Alaska pollock(=Walleye … 32                   Cods, hakes, haddocks 
##  2 Canada  Alaska pollock(=Walleye … 32                   Cods, hakes, haddocks 
##  3 Canada  Alaska pollock(=Walleye … 32                   Cods, hakes, haddocks 
##  4 Canada  Alaska pollock(=Walleye … 32                   Cods, hakes, haddocks 
##  5 Canada  Alaska pollock(=Walleye … 32                   Cods, hakes, haddocks 
##  6 Canada  Alaska pollock(=Walleye … 32                   Cods, hakes, haddocks 
##  7 Canada  Alaska pollock(=Walleye … 32                   Cods, hakes, haddocks 
##  8 Canada  Alaska pollock(=Walleye … 32                   Cods, hakes, haddocks 
##  9 Canada  Alaska pollock(=Walleye … 32                   Cods, hakes, haddocks 
## 10 Canada  Alaska pollock(=Walleye … 32                   Cods, hakes, haddocks 
## # ℹ 459 more rows
## # ℹ abbreviated name: ¹​isscaap_taxonomic_group
## # ℹ 6 more variables: asfis_species_number <fct>, asfis_species_name <chr>,
## #   fao_major_fishing_area <fct>, measure <chr>, year <dbl>, catch <dbl>
```
…
10. Use the data to do at least one analysis of your choice.
    
    I will be analzying what the country with the highest total catch amount is
    

```r
fisheries_tidy %>%
  group_by(country) %>%
  select(country, year, catch) %>%
  summarise(total_catch_country= sum(catch, na.rm =T)) %>%
  arrange(desc(total_catch_country))
```

```
## # A tibble: 203 × 2
##    country                  total_catch_country
##    <fct>                                  <dbl>
##  1 Japan                                 814843
##  2 China                                 735938
##  3 United States of America              623994
##  4 Peru                                  599508
##  5 Chile                                 366808
##  6 Un. Sov. Soc. Rep.                    360127
##  7 Norway                                300947
##  8 Russian Federation                    270219
##  9 Korea, Republic of                    253734
## 10 Indonesia                             253476
## # ℹ 193 more rows
```
…
